[Sample]
TN. +180_ +07_ F_
TN. +200_ +07_ F_
TN. +280_ +07_ E_
TN. +300_ +07_ E_
TN. +380_ +07_ D_
TN. +400_ +07_ D_
TN. +480_ +06_ C_
TN. +500_ +05_ C_
TN. +580_ +04_ B_
TN. +600_ +03_ B_
TN. +680_ +02_ A_
TN. +700_ +01_ A_
.N. +000_ +00_ A_ L
.N. +000_ +00_ A_
.N. +000_ +00_ A_
.N. +000_ +02_ A_
TN. +000_ +02_ A_
TN. +000_ +02_ A_
TN. +000_ +00_ A_
.N. +000_ +04_ A_
.N. +000_ +04_ A_
.N. +000_ +04_ A_
TN. +000_ +04_ A_
TN. +000_ +00_ A_
.N. +000_ +00_ A_
.N. +000_ +00_ A_
