[Sample]
T.E -F00_ +00_ F_
T.E +280_ +00_ F_
T.E +400_ +00_ F_
T.E +680_ +00_ E_
T.E +800_ +00_ E_
T.E +980_ +00_ E_
T.E +A80_ +00_ E_
T.E +AFD_ +00_ D_
T.E +B7F_ +00_ D_
T.E +B7F_ +00_ D_
T.E +481_ +00_ D_
T.E +500_ +00_ C_
T.E +580_ +00_ C_
T.E +600_ +00_ C_
T.E +680_ +00_ C_
T.E +700_ +00_ B_
T.E +780_ +00_ B_
T.E +800_ +00_ B_
T.E +880_ +00_ A_
T.E +900_ +00_ A_
T.E +900_ +00_ A_
T.E +980_ +00_ 9_
T.E +980_ +00_ 9_
T.E +000_ +00_ 0_ L
