[Sample]
TN. +060_ +09_ F_
TN. +100_ +00_ C_
.N. +000_ +06_ E_
TN. +000_ +00_ B_
.N. +000_ +03_ D_
TN. +000_ +00_ A_
.N. +000_ +02_ C_ L
TN. +000_ +00_ 9_
.N. +000_ +01_ C_
TN. +000_ +00_ 9-
