[Sample]
TN. +140_ +09_ F_
TN. +200_ +07_ E_
.N. +000_ +06_ C_
TN. +140_ +09_ E_
TN. +200_ +07_ D_
.N. +000_ +06_ B_
TN. +140_ +09_ D_
TN. +200_ +07_ C_
.N. +000_ +06_ A_
T.. +000_ +00_ 0_ L
