[Sample]
TN. -1D7_ +00_ E_
TN. -1D7_ +00_ D_
TN. -1D7_ +00_ A_
TN. -1D7_ +00_ 7_
TN. -1D7_ +00_ 6_
TN. -1D7_ +00_ 5_
.N. -1D7_ +00_ 5_
.N. -1D7_ +00_ 4_
.N. -1D7_ +00_ 3_
.N. -1D7_ +00_ 3_
.N. -1D7_ +00_ 3_
.N. -1D7_ +00_ 2_
.N. -1D7_ +00_ 2_
.N. -1D7_ +00_ 1_
... +000_ +00_ 0_ L
