[Sample]
TNE +100_ +03_ F_
TNE +100_ +02_ F_
TNE +180_ +02_ E_
TNE +180_ +01_ D_
.NE +000_ +00_ C_
.NE +000_ +00_ B_
.NE +000_ +00_ A_
.NE +000_ +00_ 9_
.NE +000_ +00_ 7_
.NE +000_ +00_ 7_
.NE +000_ +00_ 5_
.NE +000_ +00_ 4_
.NE +000_ +00_ 0_ L
