[Sample]
TNE +000_ +00_ F_
TNE +000_ +00_ E_
T.E +000_ +00_ D_
T.E +000_ +00_ C_
T.E +000_ +00_ B_
T.E +000_ +00_ A_
T.E +000_ +00_ 9_
T.E +000_ +00_ 8_
T.E +000_ +00_ 7_
T.E +000_ +00_ 6_
T.E +000_ +00_ 5_
T.E +000_ +00_ 4_
T.E +000_ +00_ 3_
T.E +000_ +00_ 2_
T.E +000_ +00_ 1_
T.E +000_ +00_ 0_ L
