[Sample]
TNE +080_ +03_ F_
TNE +100_ +03_ F_
TNE +200_ +02_ E_
TNE +000_ +02_ A_
TNE +000_ +01_ 9_
TNE +000_ +01_ 9_
TNE +000_ +00_ 8_
T.E +000_ +00_ 8_
T.E +000_ +00_ 7_
T.E +000_ +00_ 7_
T.E +000_ +00_ 6_
T.E +000_ +00_ 6_
T.E +000_ +00_ 5_
T.E +000_ +00_ 5_
T.E +000_ +00_ 0_
T.E +000_ +00_ 0_
T.E +000_ +00_ 0_
T.E +000_ +00_ 0_
T.E +000_ +00_ 0_
T.E +000_ +00_ 0_
T.E +000_ +00_ 0_
T.E +000_ +00_ 0_
T.E +000_ +00_ 0_
T.E +000_ +00_ 0_
T.E +000_ +00_ 0_
T.E +000_ +00_ 0_
T.E +000_ +00_ 0_
T.E +000_ +00_ 0_
T.E +000_ +00_ 0_
T.E +000_ +00_ 0_
T.E +000_ +00_ 0_
T.E +000_ +00_ 0_
... +000_ +00_ 0_ L
