[Sample]
T.. +000_ +00_ F_
T.. +000_ +00_ F_
T.. +000_ +00_ E_
T.. +000_ +00_ E_
T.. +000_ +00_ D_
T.. +000_ +00_ C_
T.. +000_ +00_ B_
T.. +000_ +00_ A_
T.. +000_ +00_ 9_
T.. +000_ +00_ 6_ L
